<?xml version="1.0" encoding="UTF-8" standalone="no"?>
<!DOCTYPE svg PUBLIC "-//W3C//DTD SVG 1.1//EN" "http://www.w3.org/Graphics/SVG/1.1/DTD/svg11.dtd">
<!-- Generated by Microsoft Visio, SVG Export NHM_RIGHT.svg Page-1 -->
<svg xmlns="http://www.w3.org/2000/svg" xmlns:xlink="http://www.w3.org/1999/xlink" xmlns:ev="http://www.w3.org/2001/xml-events"
		xmlns:v="http://schemas.microsoft.com/visio/2003/SVGExtensions/" width="0.789999in" height="0.92736in"
		viewBox="0 0 56.88 66.7699" xml:space="preserve" color-interpolation-filters="sRGB" class="st2">
	<v:documentProperties v:langID="1042" v:metric="true" v:viewMarkup="false"/>

	<style type="text/css">
	<![CDATA[
		.st1 {fill:#ffff00;stroke:#9dbb61;stroke-linecap:round;stroke-linejoin:round;stroke-width:0.749998}
		.st2 {fill:none;fill-rule:evenodd;font-size:12px;overflow:visible;stroke-linecap:square;stroke-miterlimit:3}
	]]>
	</style>

	<g v:mID="0" v:index="1" v:groupContext="foregroundPage">
		<title>Page-1</title>
		<v:pageProperties v:drawingScale="0.0393701" v:pageScale="0.0393701" v:drawingUnits="24" v:shadowOffsetX="8.99998"
				v:shadowOffsetY="-8.99998"/>
		<g id="shape1-1" v:mID="1" v:groupContext="shape" transform="translate(0.374999,-0.374999)">
			<title>Sheet.1</title>
			<path d="M3.92 0.75 L56.13 0.75 L56.13 29.1 L46.44 29.1 L46.44 57.45 L37.11 66.77 L8.39 66.77 L0 58.38 L0 0.75 L3.92
						 0.75 Z" fill="#646464"/>
		</g>
	</g>
</svg>
