<svg xmlns="http://www.w3.org/2000/svg" xmlns:xlink="http://www.w3.org/1999/xlink" xmlns:ev="http://www.w3.org/2001/xml-events"
		xmlns:v="http://schemas.microsoft.com/visio/2003/SVGExtensions/" width="4.18365in" height="3.23876in"
		viewBox="0 0 301.222 233.191" xml:space="preserve" color-interpolation-filters="sRGB" class="st2">

    
    		<g id="shape1-1" v:mID="1" v:groupContext="shape" transform="translate(0.375,-0.375)">
			<path fill="#D7D7D7" d="M0 0.75 L0 51.77 L8.72 51.77 L8.72 216.18 L90.71 216.18 L90.71 233.19 L141.73 233.19 L141.73 136.81 L187.09
						 136.81 L187.09 57.44 L300.47 57.44 L300.47 0.75 L0 0.75 Z" class="st1"/>
		</g>
</svg>
