<svg xmlns="http://www.w3.org/2000/svg" xmlns:xlink="http://www.w3.org/1999/xlink" xmlns:ev="http://www.w3.org/2001/xml-events"
		xmlns:v="http://schemas.microsoft.com/visio/2003/SVGExtensions/" width="1.86081in" height="1.05372in"
		viewBox="0 0 133.978 75.8681" xml:space="preserve" color-interpolation-filters="sRGB" class="st2">

    
		<g id="shape1-1" v:mID="1" v:groupContext="shape" transform="translate(0.375,-0.375)">
			<rect fill="#D7D7D7" x="0" y="0.749999" width="133.228" height="75.1181" class="st1"/>
		</g>
</svg>
