<?xml version="1.0" encoding="UTF-8"?>
<svg width="40px" height="40px" viewBox="0 0 40 40" version="1.1" xmlns="http://www.w3.org/2000/svg" xmlns:xlink="http://www.w3.org/1999/xlink">
    <!-- Generator: Sketch 53.2 (72643) - https://sketchapp.com -->
    <title>Group 17 Copy</title>
    <desc>Created with Sketch.</desc>
    <g id="spec" stroke="none" stroke-width="1" fill="none" fill-rule="evenodd">
        <g id="Artboard" transform="translate(-183.000000, -960.000000)" fill-rule="nonzero">
            <g id="Group-17-Copy" transform="translate(183.000000, 960.000000)">
                <rect id="Rectangle-Copy-51" fill="#6699F0" x="0" y="0" width="40" height="40" rx="2"></rect>
                <g id="Group-27" transform="translate(4.000000, 5.000000)">
                    <path d="M25.4810993,9.07446818 L27.3017666,9.07278643 C28.4063356,9.07176614 29.3025928,9.96636914 29.3036131,11.0709382 C29.3036143,11.0721698 29.3036143,11.0734014 29.3036131,11.074633 L29.3022898,12.5072554 C29.3012709,13.6103818 28.4072645,14.5043882 27.3041381,14.5054072 L25.4834708,14.5070889 C24.3789018,14.5081092 23.4826446,13.6135062 23.4816243,12.5089372 C23.4816231,12.5077056 23.4816231,12.506474 23.4816243,12.5052424 L23.4829476,11.0726199 C23.4839665,9.96949353 24.3779729,9.07548714 25.4810993,9.07446818 Z" id="Rectangle" fill="#000000" transform="translate(26.392619, 11.789938) rotate(-315.000000) translate(-26.392619, -11.789938) "></path>
                    <path d="M20.4464724,1.55325965 L21.9986517,1.5518259 L21.9947088,5.82031898 L16.1740365,5.82569555 L16.1740365,5.82569555 C16.1762152,3.46699741 18.0877742,1.55543839 20.4464724,1.55325965 Z" id="Rectangle-Copy-18" fill="#000000" transform="translate(19.086344, 3.688761) rotate(-315.000000) translate(-19.086344, -3.688761) "></path>
                    <path d="M6.97610301,15.1461916 L8.02068062,15.1452267 C9.12524965,15.1442064 10.0215069,16.0388094 10.0225272,17.1433784 C10.0225283,17.14461 10.0225283,17.1458416 10.0225272,17.1470732 L10.0122429,28.2808163 C10.0112239,29.3839427 9.11721756,30.2779491 8.01409117,30.278968 L6.96951355,30.2799329 C5.86494452,30.2809532 4.9686873,29.3863502 4.967667,28.2817812 C4.96766587,28.2805496 4.96766587,28.279318 4.967667,28.2780864 L4.97795127,17.1443433 C4.97897023,16.0412169 5.87297662,15.1472105 6.97610301,15.1461916 Z" id="Rectangle" fill="#000000" transform="translate(7.495097, 22.712580) rotate(-315.000000) translate(-7.495097, -22.712580) "></path>
                    <polygon id="Rectangle" fill="#000000" transform="translate(16.958557, 13.254899) rotate(-315.000000) translate(-16.958557, -13.254899) " points="15.6354406 7.02856822 18.3413166 7.01562144 18.2816726 19.4812299 15.5757965 19.4941767"></polygon>
                    <ellipse id="Oval" fill="#000000" transform="translate(22.528637, 7.962755) rotate(-315.000000) translate(-22.528637, -7.962755) " cx="22.5286366" cy="7.96275539" rx="2.51262904" ry="2.53210587"></ellipse>
                    <path d="M18.197759,7.99331229 L18.197759,22.1548359 C19.8152841,22.9024144 20.9287694,24.4688474 20.9287694,26.2801968 C20.9287694,27.1117201 20.6941149,27.89163 20.2837651,28.5644025 L19.1667324,26.7423674 C18.4907416,25.6397328 17.069682,25.2595545 15.9334206,25.8773543 C15.9000793,25.8954825 15.8672146,25.914474 15.83486,25.9343096 C14.8034219,26.566652 14.479891,27.9154125 15.1122334,28.9468506 L16.289728,30.8675074 C16.2109493,30.8710689 16.1316805,30.87287 16.051965,30.87287 C13.3585804,30.87287 11.1751607,28.8166602 11.1751607,26.2801968 C11.1751607,24.4688474 12.288646,22.9024144 13.9061711,22.1548359 L13.9061711,7.99331229 C12.288646,7.24573379 11.1751607,5.67930077 11.1751607,3.86795136 C11.1751607,3.09593956 11.377429,2.36841764 11.7347811,1.72982112 L12.7001088,3.30440434 C13.3760996,4.40703893 14.7971593,4.78721728 15.9334206,4.1694174 C15.966762,4.15128928 15.9996266,4.13229779 16.0319813,4.11246217 C17.0634193,3.48011977 17.3869502,2.13135923 16.7546078,1.09992118 L15.6456114,-0.709005644 C15.7795999,-0.719414245 15.9151243,-0.724721884 16.051965,-0.724721884 C18.7453497,-0.724721884 20.9287694,1.33148797 20.9287694,3.86795136 C20.9287694,5.67930077 19.8152841,7.24573379 18.197759,7.99331229 Z" id="Combined-Shape" stroke="#000000" transform="translate(16.051965, 15.074074) rotate(-45.000000) translate(-16.051965, -15.074074) "></path>
                </g>
            </g>
        </g>
    </g>
</svg>