<?xml version="1.0" encoding="UTF-8"?>
<svg width="48px" height="48px" viewBox="0 0 48 48" version="1.1" xmlns="http://www.w3.org/2000/svg" xmlns:xlink="http://www.w3.org/1999/xlink">
    <!-- Generator: Sketch 53.2 (72643) - https://sketchapp.com -->
    <title>btn_undo_default</title>
    <desc>Created with Sketch.</desc>
    <g id="spec" stroke="none" stroke-width="1" fill="none" fill-rule="evenodd">
        <g id="Artboard" transform="translate(-653.000000, -72.000000)" fill="#000000" fill-rule="nonzero">
            <g id="btn_undo_default" transform="translate(653.000000, 72.000000)">
                <rect id="Rectangle-Copy-48" opacity="0.1" x="0" y="0" width="48" height="48" rx="2"></rect>
                <path d="M16.1068994,30.4284321 L16.1068994,32.9998374 L28.1709163,32.9998374 C30.2513251,33.0132916 32.2504179,32.1913216 33.7215197,30.7175872 C35.1926216,29.2438529 36.0131234,27.2411828 35.9996932,25.1570511 C36.0181482,23.0595375 35.203361,21.0407399 33.7348724,19.5455069 C32.2663838,18.0502738 30.2647065,17.2013126 28.1709163,17.1856945 L18.1603491,17.1856945 L18.1603491,15 C16.1068994,16.1571324 14.0534497,17.3142648 12,18.5999675 C14.0534497,19.7570999 16.1068994,20.9142323 18.1603491,22.199935 L18.1603491,20.0142404 L28.1709163,20.0142404 C29.5712085,19.9985847 30.9187091,20.5489319 31.9089269,21.5409217 C32.8991447,22.5329115 33.4485089,23.8828233 33.4328811,25.2856214 C33.4485089,26.6884194 32.8991447,28.0383313 31.9089269,29.0303211 C30.9187091,30.0223108 29.5712085,30.5726581 28.1709163,30.5570023 C21.6255454,30.4284321 22.5239296,30.4284321 16.1068994,30.4284321 Z" id="Path_1006-Copy-18"></path>
            </g>
        </g>
    </g>
</svg>