<?xml version="1.0" encoding="UTF-8"?>
<svg width="302px" height="35px" viewBox="0 0 302 35" version="1.1" xmlns="http://www.w3.org/2000/svg" xmlns:xlink="http://www.w3.org/1999/xlink">
    <!-- Generator: Sketch 53.2 (72643) - https://sketchapp.com -->
    <title>dmt_logo</title>
    <desc>Created with Sketch.</desc>
    <defs>
        <polygon id="path-1" points="0 0.268307692 13.2778211 0.268307692 13.2778211 19.2383077 0 19.2383077"></polygon>
        <polygon id="path-3" points="0.10602 0.480319149 37.6029 0.480319149 37.6029 34.2550213 0.10602 34.2550213"></polygon>
    </defs>
    <g id="spec" stroke="none" stroke-width="1" fill="none" fill-rule="evenodd">
        <g id="Artboard" transform="translate(-537.000000, -338.000000)">
            <g id="dmt_logo" transform="translate(537.000000, 338.000000)">
                <g id="Group-3" transform="translate(0.000000, 8.000000)">
                    <mask id="mask-2" fill="white">
                        <use xlink:href="#path-1"></use>
                    </mask>
                    <g id="Clip-2"></g>
                    <path d="M8.25992632,4.85523077 C7.65645263,3.81676923 6.82013684,3.26984615 5.38476842,3.26984615 L3.70697895,3.26984615 L3.70697895,16.1275385 L5.6714,16.1275385 C8.07645263,16.1275385 9.17508421,14.1906154 9.17508421,10.1767692 C9.17508421,7.96523077 8.99161053,6.11061538 8.25992632,4.85523077 M11.4511895,16.3967692 C10.3481368,17.9567692 8.73003158,18.9898462 7.02792632,19.1298462 C6.34929474,19.1821538 5.48792632,19.2383077 4.41434737,19.2383077 L-7.36842105e-05,19.2383077 L-7.36842105e-05,0.268307692 L3.65761053,0.268307692 C4.70613684,0.268307692 6.09213684,0.324461538 6.82013684,0.376769231 C8.3594,0.515230769 9.69897895,1.11523077 10.7931895,2.26138462 C12.4665579,3.98215385 13.2778211,6.40984615 13.2778211,9.82061538 C13.2778211,12.4136923 12.6787684,14.6813846 11.4511895,16.3967692" id="Fill-1" fill="#FFFFFF" mask="url(#mask-2)"></path>
                </g>
                <path d="M23.5157049,16.3110559 C23.1775018,15.8676572 22.633309,15.6041347 22.0138787,15.6041347 C21.1855369,15.6041347 20.5091308,16.1311796 20.2242513,16.9676413 C19.9934259,17.6782636 19.8568298,18.6227991 19.8568298,19.964839 C19.8568298,21.5111828 20.0138787,22.668905 20.303141,23.3506583 C20.6113952,24.0864485 21.3878744,24.4543436 22.0598977,24.4543436 C23.5653762,24.4543436 24.2132944,23.0871358 24.2132944,19.9100619 C24.2132944,18.0957542 23.9780862,16.9173056 23.5157049,16.3110559 M26.3418554,25.1353566 C25.3265157,26.2930788 24.0073046,27 21.9605551,27 C18.3557341,27 16,24.2700259 16,20.0440438 C16,15.8136203 18.3849525,13 21.9605551,13 C23.8502557,13 25.3265157,13.6610268 26.4696859,15.0237932 C27.5339664,16.285888 28,17.7574684 28,19.9352297 C28,22.246973 27.4806428,23.822926 26.3418554,25.1353566" id="Fill-4" fill="#FFFFFF"></path>
                <path d="M37.5157049,16.3110559 C37.1818846,15.8676572 36.633309,15.6041347 36.0138787,15.6041347 C35.1855369,15.6041347 34.5091308,16.1311796 34.2242513,16.9676413 C33.9934259,17.6782636 33.8612126,18.6227991 33.8612126,19.964839 C33.8612126,21.5111828 34.0138787,22.668905 34.303141,23.3506583 C34.6113952,24.0864485 35.3915267,24.4543436 36.0642805,24.4543436 C37.5690285,24.4543436 38.2169467,23.0871358 38.2169467,19.9100619 C38.2169467,18.0957542 37.982469,16.9173056 37.5157049,16.3110559 M40.3411249,25.1353566 C39.3308985,26.2930788 38.0065741,27 35.9605551,27 C32.3593864,27 30,24.2700259 30,20.0440438 C30,15.8136203 32.3849525,13 35.9605551,13 C37.853908,13 39.3308985,13.6610268 40.4740687,15.0237932 C41.5339664,16.285888 42,17.7574684 42,19.9352297 C42,22.246973 41.4806428,23.822926 40.3411249,25.1353566" id="Fill-6" fill="#FFFFFF"></path>
                <path d="M49.3461208,27 C47.7192936,27 45.9396786,26.4823444 44,25.4746997 L45.2412197,22.9468511 C46.3012765,23.5919185 48.1340036,24.4430288 49.6298697,24.4430288 C50.61135,24.4430288 51.3840201,23.7979614 51.3840201,22.9468511 C51.3840201,22.0382235 50.7386732,21.5729887 49.3461208,21.3181653 L47.7971427,21.0298507 C46.917521,20.8784128 45.8370924,20.2573717 45.3685429,19.6894794 C44.9050863,19.1186749 44.6213374,18.1641791 44.6213374,17.3130688 C44.6213374,14.7313433 46.6628745,13 49.7317283,13 C51.8474767,13 53.2414842,13.641427 54.4565117,14.23917 L53.3229711,16.5617037 C52.0039024,15.891154 51.0515246,15.6079359 50.0693168,15.6079359 C49.0623718,15.6079359 48.3922878,16.1248635 48.3922878,16.8980706 C48.3922878,17.5722606 48.8280971,17.9297415 50.0445797,18.2435384 L51.6466698,18.6548963 C53.2698591,19.0691664 53.8126199,19.5584274 54.2760765,20.1554423 C54.7649977,20.7764834 55,21.5205679 55,22.4044412 C55,25.1376047 52.7270984,27 49.3461208,27" id="Fill-8" fill="#FFFFFF"></path>
                <path d="M64.1023759,21.1719464 C61.6363976,21.1719464 60.7892773,21.6332597 60.7892773,23.3029214 C60.7892773,24.3949787 61.4505536,25.1343123 62.3529046,25.1343123 C63.0149272,25.1343123 63.6769499,24.7777378 64.2031347,24.1770293 L64.2583655,21.1719464 L64.1023759,21.1719464 Z M67.1199154,28 C66.2974251,27.6480464 65.5600199,27.0173025 65.2144545,26.3072342 C64.9494962,26.5821738 64.6584152,26.8563434 64.3889787,27.0465677 C63.7314343,27.5394568 62.779077,27.8090055 61.6655057,27.8090055 C58.6442344,27.8090055 57,26.2255994 57,23.4376957 C57,20.1584433 59.2002737,18.6320275 63.5164821,18.6320275 C63.7814405,18.6320275 64.0180371,18.6320275 64.3128499,18.6582123 L64.3128499,18.0844586 C64.3128499,16.5272373 64.0180371,16.0097038 62.7238462,16.0097038 C61.5819132,16.0097038 60.2623461,16.5796067 58.8039557,17.5931098 L57.2955591,14.9700159 C58.0120662,14.5048519 58.5427292,14.2306823 59.4906083,13.8225086 C60.8191317,13.2479848 61.9521085,13 63.2000249,13 C65.4764274,13 67.0400547,13.8741079 67.5669859,15.4313293 C67.7565618,16.0097038 67.8364224,16.4448324 67.8073143,17.9450634 L67.7267073,22.6467628 C67.701331,24.1770293 67.8073143,24.833958 69,25.7604354 L67.1199154,28 Z" id="Fill-10" fill="#FFFFFF"></path>
                <path d="M78.5598824,27 L78.5598824,18.1220612 C78.5598824,16.5732689 78.2990448,16.1231347 77.3857458,16.1231347 C76.6803821,16.1231347 75.7678178,16.603328 74.9625276,17.3495437 L74.9625276,27 L71.4695077,27 L71.4695077,17.1075684 C71.4695077,15.9367687 71.3115356,14.8118089 71,13.9077831 L74.104335,13 C74.4144012,13.5598497 74.5973549,14.1497585 74.5973549,14.7103596 C75.1160911,14.3323671 75.5598824,14.0144928 76.1322557,13.6958669 C76.8376194,13.3223833 77.7509184,13.1059581 78.531227,13.1059581 C80.0205731,13.1059581 81.3240265,13.9077831 81.7428361,15.0793344 C81.9250551,15.5880837 82,16.1742351 82,17.0271605 L82,27 L78.5598824,27 Z" id="Fill-12" fill="#FFFFFF"></path>
                <path d="M107.377258,27 L106.690906,17.3916305 C106.606604,16.2544503 106.555874,15.3435384 106.555874,14.3873728 C106.345492,15.4216374 106.185095,16.0727059 105.869523,17.1609829 L102.953275,27 L99.8072483,27 L97.18643,17.5485585 C96.946207,16.6661125 96.6306345,15.3968209 96.444872,14.3625563 C96.444872,15.4216374 96.3941417,16.4850979 96.3098398,17.5981915 L95.6779488,27 L92,27 L93.7188629,9 L98.4584184,9 L100.864379,18.0105835 C101.209047,19.3083411 101.340349,19.9309436 101.5,20.8622927 C101.660397,19.9309436 101.866303,18.9995945 102.161732,17.936134 L104.651995,9 L109.361709,9 L111,27 L107.377258,27 Z" id="Fill-14" fill="#FFFFFF"></path>
                <path d="M120.098339,21.1719464 C117.636686,21.1719464 116.788767,21.6332597 116.788767,23.3029214 C116.788767,24.3949787 117.45083,25.1343123 118.353238,25.1343123 C119.015301,25.1343123 119.672887,24.7777378 120.203583,24.1770293 L120.258071,21.1719464 L120.098339,21.1719464 Z M123.120545,28 C122.294271,27.6480464 121.55682,27.0173025 121.214965,26.3072342 C120.945512,26.5821738 120.654413,26.8563434 120.389438,27.0465677 C119.727375,27.5394568 118.77869,27.8090055 117.661317,27.8090055 C114.64359,27.8090055 113,26.2255994 113,23.4376957 C113,20.1584433 115.200411,18.6320275 119.516887,18.6320275 C119.781862,18.6320275 120.018474,18.6320275 120.313305,18.6582123 L120.313305,18.0844586 C120.313305,16.5272373 120.018474,16.0097038 118.724202,16.0097038 C117.581452,16.0097038 116.258071,16.5796067 114.799589,17.5931098 L113.294831,14.9700159 C114.007651,14.5048519 114.538347,14.2306823 115.490763,13.8225086 C116.818623,13.2479848 117.952416,13 119.200411,13 C121.476955,13 123.036201,13.8741079 123.566897,15.4313293 C123.752752,16.0097038 123.837096,16.4448324 123.807987,17.9450634 L123.727375,22.6467628 C123.697518,24.1770293 123.807987,24.833958 125,25.7604354 L123.120545,28 Z" id="Fill-16" fill="#FFFFFF"></path>
                <path d="M136.689131,26.1648455 C135.688133,26.7108799 134.571031,27 133.21074,27 C129.285979,27 127,24.4491556 127,20.1423642 C127,17.0754954 128.258308,15.0494589 129.92847,13.9874 C130.876908,13.3879333 132.263087,13 133.459421,13 C134.407075,13 135.439452,13.2064098 136.219227,13.595075 C136.746399,13.8556491 136.995079,14.0371726 137.610113,14.5334344 L135.79796,16.819313 C135.049565,16.1700737 134.239196,15.7777487 133.54336,15.7777487 C131.873199,15.7777487 131.124019,17.124536 131.124019,20.2455691 C131.124019,21.9861452 131.3727,23.0233178 131.846527,23.5935066 C132.236414,24.0648821 132.878905,24.3503424 133.516688,24.3503424 C134.381187,24.3503424 135.156254,24.0114498 136.07802,23.2546139 L136.299244,23.0774821 L138,25.1767135 C137.442234,25.6978617 137.189631,25.8793852 136.689131,26.1648455" id="Fill-18" fill="#FFFFFF"></path>
                <path d="M147.382273,27 L147.382273,17.7169209 C147.382273,16.3378466 146.995853,15.8228806 145.950888,15.8228806 C145.041985,15.8228806 143.851626,16.3644696 143.025917,17.094702 L143.025917,27 L139.272126,27 L139.272126,11.020842 C139.272126,9.72696155 139.162498,8.43003841 139,7.86334766 L142.776338,7 C142.942724,7.75609478 143.025917,9.05301791 143.025917,10.3720002 L143.025917,13.1293881 C143.025917,13.5591602 142.969159,14.125851 142.969159,14.2893926 C143.934819,13.3956186 145.533368,12.8030655 146.969418,12.8030655 C148.76001,12.8030655 150.200726,13.5591602 150.639238,14.7746929 C150.916807,15.5566501 151,16.0160879 151,17.3350702 L151,27 L147.382273,27 Z" id="Fill-20" fill="#FFFFFF"></path>
                <path d="M154.363077,27 L154.363077,13.3324781 L157.614359,12.7611152 L157.614359,27 L154.363077,27 Z M155.988376,11.5073335 C154.899829,11.5073335 154,10.5032359 154,9.25404971 C154,8.00333167 154.922393,7 156.038974,7 C157.127521,7 158,8.00333167 158,9.25404971 C158,10.5032359 157.104957,11.5073335 155.988376,11.5073335 L155.988376,11.5073335 Z" id="Fill-22" fill="#FFFFFF"></path>
                <path d="M168.559882,27 L168.559882,18.1220612 C168.559882,16.5732689 168.302719,16.1231347 167.385746,16.1231347 C166.684791,16.1231347 165.767818,16.603328 164.962528,17.3495437 L164.962528,27 L161.469508,27 L161.469508,17.1075684 C161.469508,15.9367687 161.315944,14.8118089 161,13.9077831 L164.104335,13 C164.414401,13.5598497 164.597355,14.1497585 164.597355,14.7103596 C165.116091,14.3323671 165.559882,14.0144928 166.136664,13.6958669 C166.838354,13.3223833 167.750918,13.1059581 168.535636,13.1059581 C170.020573,13.1059581 171.324026,13.9077831 171.742836,15.0793344 C171.925055,15.5880837 172,16.1742351 172,17.0271605 L172,27 L168.559882,27 Z" id="Fill-24" fill="#FFFFFF"></path>
                <path d="M183.214724,19.3441453 C183.214724,18.3521755 183.111196,17.8341469 182.777607,17.3359576 C182.427147,16.8171941 181.907209,16.555608 181.175613,16.555608 C179.78911,16.555608 178.996933,17.5975437 178.996933,19.4484858 L178.996933,19.5021256 L183.214724,19.5021256 L183.214724,19.3441453 Z M178.945552,22.0540597 L178.945552,22.1613394 C178.945552,24.2202278 180.005368,25.3944261 181.881135,25.3944261 C183.132669,25.3944261 184.302147,24.9498767 185.419479,24.0622474 L186.83589,26.1497927 C185.228528,27.398205 183.544479,28 181.582055,28 C177.580521,28 175,25.2908203 175,21.0907469 C175,18.6931192 175.515337,17.0993544 176.740798,15.8009762 C177.884202,14.5724033 179.269172,14 181.122699,14 C182.72546,14 184.25,14.5224374 185.146472,15.4063927 C186.42408,16.6599486 187,18.46019 187,21.2443185 L187,22.0540597 L178.945552,22.0540597 Z" id="Fill-26" fill="#FFFFFF"></path>
                <polygon id="Fill-28" fill="#FFFFFF" points="206.402013 12.0049876 202.095484 12.0049876 202.095484 27 198.408874 27 198.408874 12.0049876 194 12.0049876 194 9 207 9"></polygon>
                <path d="M213.513882,16.3110559 C213.17925,15.8676572 212.634925,15.6041347 212.01169,15.6041347 C211.182416,15.6041347 210.505845,16.1311796 210.22528,16.9676413 C209.990015,17.6782636 209.857769,18.6227991 209.857769,19.964839 C209.857769,21.5111828 210.014856,22.668905 210.299805,23.3506583 C210.612518,24.0864485 211.389187,24.4543436 212.061374,24.4543436 C213.567219,24.4543436 214.215295,23.0871358 214.215295,19.9100619 C214.215295,18.0957542 213.980029,16.9173056 213.513882,16.3110559 M216.344374,25.1353566 C215.328787,26.2930788 214.009255,27 211.962007,27 C208.355577,27 206,24.2700259 206,20.0440438 C206,15.8136203 208.384803,13 211.962007,13 C213.852168,13 215.328787,13.6610268 216.472236,15.0237932 C217.536775,16.285888 218,17.7574684 218,19.9352297 C218,22.246973 217.48417,23.822926 216.344374,25.1353566" id="Fill-30" fill="#FFFFFF"></path>
                <path d="M228.516435,16.3110559 C228.177502,15.8676572 227.633309,15.6041347 227.014609,15.6041347 C226.185537,15.6041347 225.509131,16.1311796 225.224251,16.9676413 C224.993426,17.6782636 224.861213,18.6227991 224.861213,19.964839 C224.861213,21.5111828 225.013879,22.668905 225.303871,23.3506583 C225.615778,24.0864485 226.391527,24.4543436 227.06428,24.4543436 C228.569759,24.4543436 229.217677,23.0871358 229.217677,19.9100619 C229.217677,18.0957542 228.982469,16.9173056 228.516435,16.3110559 M231.341855,25.1353566 C230.327246,26.2930788 229.007305,27 226.960555,27 C223.359386,27 221,24.2700259 221,20.0440438 C221,15.8136203 223.384953,13 226.960555,13 C228.850256,13 230.327246,13.6610268 231.469686,15.0237932 C232.533966,16.285888 233,17.7574684 233,19.9352297 C233,22.246973 232.480643,23.822926 231.341855,25.1353566" id="Fill-32" fill="#FFFFFF"></path>
                <path d="M238.79682,28 C237.229546,28 235.968592,27.2804407 235.52501,26.1388899 C235.245056,25.443316 235.193874,25.0205749 235.193874,23.0785144 L235.193874,12.9184874 C235.193874,11.1368287 235.134936,10.0484953 235,8.82524454 L238.770454,8 C238.906165,8.7457932 238.963552,9.62125698 238.963552,11.5348349 L238.963552,22.1505828 C238.963552,24.4869018 238.989143,24.8084548 239.212485,25.1764794 C239.348197,25.4185811 239.651415,25.5534985 239.953083,25.5534985 C240.088794,25.5534985 240.171772,25.5534985 240.364095,25.4995315 L241,27.6274782 C240.364095,27.8650826 239.597906,28 238.79682,28" id="Fill-34" fill="#FFFFFF"></path>
                <path d="M248.346121,27 C246.719294,27 244.936041,26.4823444 243,25.4746997 L244.24122,22.9468511 C245.298366,23.5919185 247.129638,24.4430288 248.625504,24.4430288 C249.61135,24.4430288 250.38402,23.7979614 250.38402,22.9468511 C250.38402,22.0382235 249.738673,21.5729887 248.346121,21.3181653 L246.792777,21.0298507 C245.917521,20.8784128 244.837092,20.2573717 244.368543,19.6894794 C243.905086,19.1186749 243.621337,18.1641791 243.621337,17.3130688 C243.621337,14.7313433 245.662875,13 248.731728,13 C250.847477,13 252.241484,13.641427 253.456512,14.23917 L252.319333,16.5617037 C250.999537,15.891154 250.047159,15.6079359 249.069317,15.6079359 C248.062372,15.6079359 247.392288,16.1248635 247.392288,16.8980706 C247.392288,17.5722606 247.828097,17.9297415 249.040214,18.2435384 L250.642304,18.6548963 C252.270587,19.0691664 252.81262,19.5584274 253.272439,20.1554423 C253.764998,20.7764834 254,21.5205679 254,22.4044412 C254,25.1376047 251.727098,27 248.346121,27" id="Fill-36" fill="#FFFFFF"></path>
                <g id="Group-40" transform="translate(264.000000, 0.000000)">
                    <mask id="mask-4" fill="white">
                        <use xlink:href="#path-3"></use>
                    </mask>
                    <g id="Clip-39"></g>
                    <path d="M18.85446,32.8669362 C15.43674,31.7826809 12.32834,29.8033191 9.71546,27.1582128 L9.86974,27.0003404 C11.87994,24.8385319 13.95246,23.0505532 14.82646,22.5531064 L15.00886,22.4495957 L15.1259,22.6178936 C15.64726,23.3625745 16.8511,24.0268298 18.91526,24.7067234 C19.58938,24.929383 20.32734,25.6822553 21.04326,26.4083191 C21.54942,26.9251277 22.18022,27.5692766 22.43634,27.5692766 L22.44014,27.5692766 C23.21382,27.5454468 25.21718,26.980234 25.44746,26.488 C25.51814,26.3383191 25.60858,26.0181064 25.69826,25.7098085 C25.87686,25.0917234 26.00378,24.6747021 26.15122,24.493 L26.16642,24.4751277 L26.18542,24.4609787 C26.23254,24.4222553 26.32906,24.3247021 26.4385,24.2144894 C26.5867,24.0662979 26.7729,23.8808723 26.98722,23.6827872 C27.10882,23.5740638 27.18026,23.3945957 27.22358,23.216617 C27.05334,23.3454468 26.86562,23.4809787 26.72806,23.5547021 C26.51526,23.6671489 26.01822,23.8548085 25.5835,23.9612979 C25.31142,24.0253404 25.10318,24.0662979 25.10318,24.0662979 L25.06518,24.0722553 L25.02338,24.0677872 C24.44806,23.9769362 23.40154,23.5748085 23.01698,23.0840638 C22.27142,22.1383191 21.68014,19.4708723 22.94782,17.9547021 L22.95618,17.9405532 L22.97062,17.9286383 C23.09754,17.8161915 23.65386,17.2197021 23.7557,17.073 C24.41158,16.1332128 25.32738,15.6573617 26.46966,15.6573617 C27.99954,15.6573617 29.46026,16.545766 29.63886,16.7639574 C29.8813,17.0558723 29.9307,18.1148085 29.9383,18.790234 C30.3259,18.403 30.71958,17.8042766 30.8427,17.0871489 L30.88374,16.8525745 L31.12086,16.9114043 C31.37698,16.9739574 31.4773,16.986617 31.5153,16.9910851 C31.68554,16.9151277 31.89226,16.5308723 32.07846,16.1927872 L32.10658,16.1376809 C32.2677,15.8189574 32.34142,15.7236383 32.40982,15.673 C33.12802,15.1137447 33.02618,14.1084255 32.9631,13.5082128 C32.93498,13.2371489 32.9213,13.0874681 32.9745,12.9765106 C32.9973,12.9176809 32.9745,12.7337447 32.9403,12.644383 C30.7743,12.0084255 27.71834,9.62470213 27.39838,9.25906383 C27.22206,9.05725532 27.10122,8.8636383 26.98342,8.67448936 C26.86942,8.49055319 26.7615,8.31480851 26.6209,8.16661702 C26.32374,7.92161702 22.7525,6.53948936 19.8569,6.06661702 C18.4357,5.77842553 16.05538,5.54757447 14.14018,5.3636383 C12.76458,5.23182979 11.57594,5.11491489 11.06066,5.01140426 C10.84786,4.96895745 10.6343,4.92725532 10.50282,4.92725532 C10.45114,4.92725532 10.42758,4.93470213 10.42758,4.93470213 C10.37818,5.00768085 10.41846,5.3517234 10.46026,5.68534043 C10.47242,5.79406383 10.48686,5.91321277 10.50282,6.04278723 C10.5735,6.66385106 11.4399,7.41746809 11.72566,7.66470213 L11.96658,7.87470213 L11.68158,8.02661702 C11.33806,8.20385106 11.01202,8.38182979 10.69054,8.55534043 C8.48502,9.75278723 6.58198,10.789383 2.04402,10.8094894 L1.82058,10.8094894 C1.62374,9.48842553 1.50214,8.13757447 1.4687,6.75842553 C6.59718,3.29565957 12.53202,1.80257447 18.85446,1.80257447 C25.17766,1.80257447 31.11098,3.29565957 36.24022,6.75842553 C35.93926,19.2921489 28.66302,29.7511915 18.85446,32.8669362 L18.85446,32.8669362 Z M37.00326,5.67044681 C31.90518,2.22704255 25.79858,0.480021277 18.85446,0.480021277 C11.91034,0.480021277 5.80298,2.22704255 0.7049,5.67044681 L0.10602,6.07480851 L0.12274,6.78970213 C0.27246,13.1321489 2.12458,19.1082128 5.4739,24.0722553 C7.09574,26.4827872 9.02386,28.5678936 11.20202,30.2694894 C13.42806,32.0090638 15.86234,33.3055532 18.4395,34.1232128 L18.85446,34.2550213 L19.26942,34.1232128 C21.84734,33.3055532 24.28086,32.0090638 26.50614,30.2694894 C28.68582,28.5678936 30.61318,26.4827872 32.23578,24.0722553 C35.58358,19.1082128 37.43646,13.1321489 37.58618,6.78970213 L37.6029,6.07480851 L37.00326,5.67044681 Z" id="Fill-38" fill="#FFFFFF" mask="url(#mask-4)"></path>
                </g>
            </g>
        </g>
    </g>
</svg>