<?xml version="1.0" encoding="UTF-8"?>
<svg width="120px" height="120px" viewBox="0 0 120 120" version="1.1" xmlns="http://www.w3.org/2000/svg" xmlns:xlink="http://www.w3.org/1999/xlink">
    <!-- Generator: Sketch 53.2 (72643) - https://sketchapp.com -->
    <title>btn_app_im_default</title>
    <desc>Created with Sketch.</desc>
    <g id="spec" stroke="none" stroke-width="1" fill="none" fill-rule="evenodd">
        <g id="Artboard" transform="translate(-326.000000, -1042.000000)">
            <g id="btn_app_im_default" transform="translate(326.000000, 1042.000000)">
                <rect id="Rectangle-Copy-90" fill="#000000" x="0" y="0" width="120" height="120" rx="6"></rect>
                <g id="Group-10-Copy-2" transform="translate(37.000000, 29.000000)">
                    <path d="M45,14 C45,21.7304009 34.9263412,28 22.5003118,28 C10.0736588,28 0,21.7304009 0,14 C0,6.26786928 10.0736588,0 22.5003118,0 C34.9263412,0 45,6.26786928 45,14" id="Fill-13-Copy-4" stroke="#81848B" stroke-width="2" stroke-linejoin="round"></path>
                    <path d="M41,13.5 C41,19.2978007 32.7172139,24 22.5002564,24 C12.2827861,24 4,19.2978007 4,13.5 C4,7.70090196 12.2827861,3 22.5002564,3 C32.7172139,3 41,7.70090196 41,13.5" id="Fill-13-Copy-4" fill="#6699F0"></path>
                    <path d="M45,25 C45,32.6871474 34.9263412,38.9216664 22.5003118,38.9216664 C10.0736588,38.9216664 0,32.6871474 0,25 L0,36.0800537 C0,43.767201 10.0736588,50 22.5003118,50 C34.9263412,50 45,43.767201 45,36.0800537 L45,25 Z" id="Fill-17-Copy-4" stroke="#81848B" stroke-width="2" stroke-linejoin="round"></path>
                    <path d="M45,37 C45,44.6886695 34.9263412,50.919751 22.5003118,50.919751 C10.0736588,50.919751 0,44.6886695 0,37 L0,48.080249 C0,55.7671987 10.0736588,62 22.5003118,62 C34.9263412,62 45,55.7671987 45,48.080249 L45,37 Z" id="Fill-19-Copy-4" stroke="#81848B" stroke-width="2" stroke-linejoin="round"></path>
                    <path d="M45,14 C45,21.6871474 34.9263412,27.9216664 22.5003118,27.9216664 C10.0736588,27.9216664 0,21.6871474 0,14 L0,25.0800537 C0,32.7689212 10.0736588,39 22.5003118,39 C34.9263412,39 45,32.7689212 45,25.0800537 L45,14 Z" id="Fill-15-Copy-4" stroke="#81848B" stroke-width="2" stroke-linejoin="round"></path>
                </g>
            </g>
        </g>
    </g>
</svg>