<?xml version="1.0" encoding="UTF-8"?>
<svg width="120px" height="120px" viewBox="0 0 120 120" version="1.1" xmlns="http://www.w3.org/2000/svg" xmlns:xlink="http://www.w3.org/1999/xlink">
    <!-- Generator: Sketch 53.2 (72643) - https://sketchapp.com -->
    <title>btn_app_maintenance_default</title>
    <desc>Created with Sketch.</desc>
    <g id="spec" stroke="none" stroke-width="1" fill="none" fill-rule="evenodd">
        <g id="Artboard" transform="translate(-1001.000000, -1042.000000)">
            <g id="btn_app_maintenance_default" transform="translate(1001.000000, 1042.000000)">
                <rect id="Rectangle-Copy-97" fill="#000000" x="0" y="0" width="120" height="120" rx="6"></rect>
                <g id="Group-15-Copy-3" transform="translate(12.000000, 18.000000)" fill-rule="nonzero" stroke-width="2">
                    <g id="Group-6" transform="translate(43.487067, 43.487067) rotate(-315.000000) translate(-43.487067, -43.487067) translate(22.987067, 2.487067)" stroke="#6699F0">
                        <rect id="Rectangle" x="27" y="1" width="13" height="12" rx="2"></rect>
                        <path d="M1.04937524,11 L14,11 L14,2 L11,2 C5.8146519,2 1.55109967,5.94667731 1.04937524,11 Z" id="Rectangle-Copy-18"></path>
                        <rect id="Rectangle" x="15" y="44" width="11" height="37" rx="2"></rect>
                        <path d="M18,43 L23,43 L23,12.4310208 L23.4608108,12.1359974 C25.0311871,11.1306005 26,9.39884372 26,7.5 C26,4.46243388 23.5375661,2 20.5,2 C17.4624339,2 15,4.46243388 15,7.5 C15,9.39884372 15.9688129,11.1306005 17.5391892,12.1359974 L18,12.4310208 L18,43 Z" id="Combined-Shape"></path>
                    </g>
                    <path d="M46.6110795,31.3933983 L38.8329049,39.1715729 L30.9898904,31.3285584 C26.619494,32.821443 21.5867065,31.8248694 18.1006719,28.3388348 C16.6148956,26.8530585 15.5813384,25.0863095 15,23.2096244 L21.8882232,25.0553183 C24.0220876,25.6270855 26.2154354,24.3607556 26.7872027,22.2268912 L27.8224789,18.3631879 C28.3942461,16.2293234 27.1279162,14.0359756 24.9940517,13.4642084 L17.3944337,11.4278968 C17.6172458,11.165021 17.8526585,10.9091786 18.1006719,10.6611652 C22.9822255,5.77961159 30.8967878,5.77961159 35.7783414,10.6611652 C39.2643761,14.1471999 40.2609497,19.1799874 38.7680622,23.550381 L46.6110795,31.3933983 Z M55.8034677,40.5857864 L66.0226365,50.8049553 C70.3930329,49.3120706 75.4258204,50.3086442 78.9118551,53.7946789 C80.5121642,55.394988 81.5878475,57.3212579 82.1389049,59.3597706 L74.4994943,57.3127967 C72.3656299,56.7410294 70.172282,58.0073594 69.6005148,60.1412238 L68.5652386,64.0049271 C67.9934714,66.1387915 69.2598013,68.3321393 71.3936657,68.9039066 L79.3324615,71.0311005 C79.1965355,71.1807351 79.0563333,71.3278702 78.9118551,71.4723484 C74.0303014,76.3539021 66.1157392,76.3539021 61.2341855,71.4723484 C57.7481509,67.9863138 56.7515773,62.9535263 58.2444647,58.5831326 L48.0252931,48.363961 L55.8034677,40.5857864 Z" id="Combined-Shape" stroke="#81848B"></path>
                </g>
            </g>
        </g>
    </g>
</svg>